COD_CLIENTE;COD_PRODUTO;COD_VENDEDOR;COD_MES;QTDE_VENDIDA;VALOR_VENDA;VALOR_IMPOSTO
1;1;1;012007;1;10,00;1,00
2;2;2;022007;2;1,00;0,10
3;3;2;032007;3;3,00;0,30
4;4;1;042007;4;4,00;0,40
5;5;1;052007;5;5,00;0,50
6;6;1;062007;6;6,00;0,60
7;7;1;072007;7;7,00;0,70
8;8;2;082007;8;8,00;0,80
9;9;2;092007;10;100,00;10,00
10;10;2;102007;1;78,00;7,80
1;2;2;112007;1;8,00;0,80
1;2;1;122007;1;9,00;0,90
1;2;2;012007;1;10,00;1,00
1;2;1;012007;2;1,00;0,10
1;2;1;012007;3;3,00;0,30
1;2;1;012007;4;4,00;0,40
1;2;1;012007;5;5,00;0,50
1;3;1;022007;6;6,00;0,60
1;4;1;022007;7;7,00;0,70
1;5;2;022007;8;8,00;0,80
1;6;2;022007;10;100,00;10,00
1;7;1;022007;1;78,00;7,80
1;7;1;022007;1;8,00;0,80
1;7;1;022007;1;9,00;0,90
1;7;2;022007;1;10,00;1,00
1;7;2;022007;2;1,00;0,10
2;8;1;022007;3;3,00;0,30
2;8;1;022007;4;4,00;0,40
2;8;2;022007;5;5,00;0,50
2;9;2;022007;6;6,00;0,60
2;9;2;022007;7;7,00;0,70
2;9;1;022007;8;8,00;0,80
8;10;1;022007;10;100,00;10,00
8;9;2;022007;1;78,00;7,80
8;9;3;022007;1;8,00;0,80
8;9;1;032007;1;9,00;0,90
5;9;3;032007;2;10,00;1,00
5;6;2;032007;2;1,00;0,10
9;6;1;042007;2;3,00;0,30
9;6;2;052007;2;4,00;0,40
4;6;1;062007;2;5,00;0,50
4;6;1;072007;3;6,00;0,60
4;6;2;082007;3;7,00;0,70
4;7;2;092007;3;8,00;0,80
4;7;2;102007;3;100,00;10,00
6;7;1;112007;3;78,00;7,80
6;7;1;122007;4;8,00;0,80
6;8;2;022007;4;9,00;0,90
7;8;2;022007;4;3,00;0,30
10;8;1;032007;1;4,00;0,40
1;8;1;032007;1;5,00;0,50
1;8;1;032007;1;6,00;0,60
1;9;1;042007;1;7,00;0,70
1;9;2;052007;1;8,00;0,80
1;4;1;062007;1;100,00;10,00
1;4;1;072007;2;78,00;7,80
4;4;1;082007;2;3,00;0,30
4;4;2;092007;2;4,00;0,40
4;5;1;102007;2;5,00;0,50
4;5;1;112007;23;6,00;0,60
4;5;2;122007;3;7,00;0,70
1;5;1;122007;3;8,00;0,80
1;3;1;122007;3;100,00;10,00
1;3;1;122007;3;78,00;7,80
1;3;2;122007;3;5,00;0,50
1;3;2;122007;4;5,00;0,50
1;3;2;122007;4;5,00;0,50
1;3;2;122007;4;5,00;0,50
1;1;1;012007;1;10,00;1,00
2;2;1;022007;2;1,00;0,10
3;3;1;032007;3;3,00;0,30
4;4;2;042007;4;4,00;0,40
5;5;2;052007;5;5,00;0,50
6;6;1;062007;6;6,00;0,60
7;7;1;072007;7;7,00;0,70
8;8;1;082007;8;8,00;0,80
9;9;2;092007;10;100,00;10,00
10;10;2;102007;1;78,00;7,80
1;2;1;112007;1;8,00;0,80
1;2;1;122007;1;9,00;0,90
1;2;1;012007;1;10,00;1,00
1;2;1;012007;2;1,00;0,10
1;2;1;012007;3;3,00;0,30
1;2;1;012007;4;4,00;0,40
1;2;1;012007;5;5,00;0,50
1;3;1;022007;6;6,00;0,60
1;4;1;022007;7;7,00;0,70
1;5;1;022007;8;8,00;0,80
1;6;1;022007;10;100,00;10,00
1;7;1;022007;1;78,00;7,80
1;7;1;022007;1;8,00;0,80
1;7;1;022007;1;9,00;0,90
1;7;2;022007;1;10,00;1,00
1;7;2;022007;2;1,00;0,10
2;8;1;022007;3;3,00;0,30
2;8;1;022007;4;4,00;0,40
2;8;1;022007;5;5,00;0,50
2;9;1;022007;6;6,00;0,60
2;9;1;022007;7;7,00;0,70
2;9;2;022007;8;8,00;0,80
8;10;2;022007;10;100,00;10,00
8;9;2;022007;1;78,00;7,80
8;9;1;022007;1;8,00;0,80
8;9;1;032007;1;9,00;0,90
5;9;2;032007;2;10,00;1,00
5;6;2;032007;2;1,00;0,10
9;6;1;042007;2;3,00;0,30
9;6;1;052007;2;4,00;0,40
4;6;1;062007;2;5,00;0,50
4;6;2;072007;3;6,00;0,60
4;6;2;082007;3;7,00;0,70
4;7;2;092007;3;8,00;0,80
4;7;1;102007;3;100,00;10,00
6;7;2;112007;3;78,00;7,80
6;7;2;122007;4;8,00;0,80
6;8;2;022007;4;9,00;0,90
7;8;1;022007;4;3,00;0,30
10;8;2;032007;1;4,00;0,40
1;8;1;032007;1;5,00;0,50
1;8;1;032007;1;6,00;0,60
1;9;1;042007;1;7,00;0,70
1;9;1;052007;1;8,00;0,80
1;4;1;062007;1;100,00;10,00
1;4;1;072007;2;78,00;7,80
4;4;1;082007;2;3,00;0,30
4;4;1;092007;2;4,00;0,40
4;5;1;102007;2;5,00;0,50
4;5;2;112007;23;6,00;0,60
4;5;2;122007;3;7,00;0,70
1;5;2;122007;3;8,00;0,80
1;3;1;122007;3;100,00;10,00
1;3;1;122007;3;78,00;7,80
1;3;2;122007;3;5,00;0,50
1;3;2;122007;4;5,00;0,50
1;3;2;122007;4;5,00;0,50
1;3;1;122007;4;5,00;0,50
1;1;1;012007;1;10,00;1,00
2;2;2;022007;2;1,00;0,10
3;3;2;032007;3;3,00;0,30
4;4;2;042007;4;4,00;0,40
5;5;1;052007;5;5,00;0,50
6;6;1;062007;6;6,00;0,60
7;7;1;072007;7;7,00;0,70
8;8;1;082007;8;8,00;0,80
9;9;2;092007;10;100,00;10,00
10;10;2;102007;1;78,00;7,80
1;2;2;112007;1;8,00;0,80
1;2;2;122007;1;9,00;0,90
1;2;2;012007;1;10,00;1,00
1;2;1;012007;2;1,00;0,10
1;2;2;012007;3;3,00;0,30
1;2;2;012007;4;4,00;0,40
1;2;1;012007;5;5,00;0,50
1;3;1;022007;6;6,00;0,60
1;4;2;022007;7;7,00;0,70
1;5;2;022007;8;8,00;0,80
1;6;2;022007;10;100,00;10,00
1;7;1;022007;1;78,00;7,80
1;7;1;022007;1;8,00;0,80
1;7;1;022007;1;9,00;0,90
1;7;2;022007;1;10,00;1,00
1;7;1;022007;2;1,00;0,10
2;8;2;022007;3;3,00;0,30
2;8;1;022007;4;4,00;0,40
2;8;2;022007;5;5,00;0,50
2;9;2;022007;6;6,00;0,60
2;9;1;022007;7;7,00;0,70
2;9;1;022007;8;8,00;0,80
8;10;1;022007;10;100,00;10,00
8;9;2;022007;1;78,00;7,80
8;9;1;022007;1;8,00;0,80
8;9;1;032007;1;9,00;0,90
5;9;1;032007;2;10,00;1,00
5;6;1;032007;2;1,00;0,10
9;6;2;042007;2;3,00;0,30
9;6;1;052007;2;4,00;0,40
4;6;2;062007;2;5,00;0,50
4;6;1;072007;3;6,00;0,60
4;6;2;082007;3;7,00;0,70
4;7;1;092007;3;8,00;0,80
4;7;2;102007;3;100,00;10,00
6;7;1;112007;3;78,00;7,80
6;7;2;122007;4;8,00;0,80
6;8;1;022007;4;9,00;0,90
7;8;1;022007;4;3,00;0,30
10;8;1;032007;1;4,00;0,40
1;8;1;032007;1;5,00;0,50
1;8;1;032007;1;6,00;0,60
1;9;1;042007;1;7,00;0,70
1;9;1;052007;1;8,00;0,80
1;4;1;062007;1;100,00;10,00
1;4;1;072007;2;78,00;7,80
4;4;1;082007;2;3,00;0,30
4;4;1;092007;2;4,00;0,40
4;5;1;102007;2;5,00;0,50
4;5;1;112007;23;6,00;0,60
4;5;1;122007;3;7,00;0,70
1;5;1;122007;3;8,00;0,80
1;3;2;122007;3;100,00;10,00
1;3;2;122007;3;78,00;7,80
1;3;2;122007;3;5,00;0,50
1;3;2;122007;4;5,00;0,50
1;3;2;122007;4;5,00;0,50
1;3;2;122007;4;5,00;0,50
1;1;2;012007;1;10,00;1,00
2;2;1;022007;2;1,00;0,10
3;3;1;032007;3;3,00;0,30
4;4;1;042007;4;4,00;0,40
5;5;2;052007;5;5,00;0,50
6;6;1;062007;6;6,00;0,60
7;7;2;072007;7;7,00;0,70
8;8;1;082007;8;8,00;0,80
9;9;1;092007;10;100,00;10,00
10;10;1;102007;1;78,00;7,80
1;2;1;112007;1;8,00;0,80
1;2;1;122007;1;9,00;0,90
1;2;2;012007;1;10,00;1,00
1;2;2;012007;2;1,00;0,10
1;2;2;012007;3;3,00;0,30
1;2;2;012007;4;4,00;0,40
1;2;2;012007;5;5,00;0,50
1;3;1;022007;6;6,00;0,60
1;4;1;022007;7;7,00;0,70
1;5;1;022007;8;8,00;0,80
1;6;1;022007;10;100,00;10,00
1;7;1;022007;1;78,00;7,80
1;7;1;022007;1;8,00;0,80
1;7;1;022007;1;9,00;0,90
1;7;1;022007;1;10,00;1,00
1;7;1;022007;2;1,00;0,10
2;8;1;022007;3;3,00;0,30
2;8;1;022007;4;4,00;0,40
2;8;1;022007;5;5,00;0,50
2;9;2;022007;6;6,00;0,60
2;9;2;022007;7;7,00;0,70
2;9;2;022007;8;8,00;0,80
8;10;2;022007;10;100,00;10,00
8;9;2;022007;1;78,00;7,80
8;9;2;022007;1;8,00;0,80
8;9;2;032007;1;9,00;0,90
5;9;2;032007;2;10,00;1,00
5;6;1;032007;2;1,00;0,10
9;6;1;042007;2;3,00;0,30
9;6;1;052007;2;4,00;0,40
4;6;1;062007;2;5,00;0,50
4;6;1;072007;3;6,00;0,60
4;6;1;082007;3;7,00;0,70
4;7;2;092007;3;8,00;0,80
4;7;2;102007;3;100,00;10,00
6;7;2;112007;3;78,00;7,80
6;7;2;122007;4;8,00;0,80
6;8;2;022007;4;9,00;0,90
7;8;1;022007;4;3,00;0,30
10;8;1;032007;1;4,00;0,40
1;8;1;032007;1;5,00;0,50
1;8;1;032007;1;6,00;0,60
1;9;1;042007;1;7,00;0,70
1;9;1;052007;1;8,00;0,80
1;4;1;062007;1;100,00;10,00
1;4;2;072007;2;78,00;7,80
4;4;2;082007;2;3,00;0,30
4;4;2;092007;2;4,00;0,40
4;5;2;102007;2;5,00;0,50
4;5;2;112007;23;6,00;0,60
4;5;2;122007;3;7,00;0,70
1;5;1;122007;3;8,00;0,80
1;3;1;122007;3;100,00;10,00
1;3;1;122007;3;78,00;7,80
1;3;1;122007;3;5,00;0,50
1;3;1;122007;4;5,00;0,50
1;3;1;122007;4;5,00;0,50
1;3;2;122007;4;5,00;0,50
1;1;2;012007;1;10,00;1,00
2;2;2;022007;2;1,00;0,10
3;3;2;032007;3;3,00;0,30
4;4;2;042007;4;4,00;0,40
5;5;2;052007;5;5,00;0,50
6;6;1;062007;6;6,00;0,60
7;7;1;072007;7;7,00;0,70
8;8;1;082007;8;8,00;0,80
9;9;1;092007;10;100,00;10,00
10;10;1;102007;1;78,00;7,80
1;2;1;112007;1;8,00;0,80
1;2;1;122007;1;9,00;0,90
1;2;2;012007;1;10,00;1,00
1;2;2;012007;2;1,00;0,10
1;2;2;012007;3;3,00;0,30
1;2;2;012007;4;4,00;0,40
1;2;2;012007;5;5,00;0,50
1;3;2;022007;6;6,00;0,60
1;4;1;022007;7;7,00;0,70
1;5;1;022007;8;8,00;0,80
1;6;1;022007;10;100,00;10,00
1;7;1;022007;1;78,00;7,80
1;7;1;022007;1;8,00;0,80
1;7;1;022007;1;9,00;0,90
1;7;1;022007;1;10,00;1,00
1;7;1;022007;2;1,00;0,10
2;8;1;022007;3;3,00;0,30
2;8;1;022007;4;4,00;0,40
2;8;2;022007;5;5,00;0,50
2;9;2;022007;6;6,00;0,60
2;9;1;022007;7;7,00;0,70
2;9;1;022007;8;8,00;0,80
8;10;1;022007;10;100,00;10,00
8;9;1;022007;1;78,00;7,80
8;9;1;022007;1;8,00;0,80
8;9;2;032007;1;9,00;0,90
5;9;2;032007;2;10,00;1,00
5;6;2;032007;2;1,00;0,10
9;6;2;042007;2;3,00;0,30
9;6;2;052007;2;4,00;0,40
4;6;2;062007;2;5,00;0,50
4;6;2;072007;3;6,00;0,60
4;6;2;082007;3;7,00;0,70
4;7;2;092007;3;8,00;0,80
4;7;2;102007;3;100,00;10,00
6;7;2;112007;3;78,00;7,80
6;7;1;122007;4;8,00;0,80
6;8;1;022007;4;9,00;0,90
7;8;1;022007;4;3,00;0,30
10;8;1;032007;1;4,00;0,40
1;8;1;032007;1;5,00;0,50
1;8;1;032007;1;6,00;0,60
1;9;1;042007;1;7,00;0,70
1;9;1;052007;1;8,00;0,80
1;4;2;062007;1;100,00;10,00
1;4;2;072007;2;78,00;7,80
4;4;2;082007;2;3,00;0,30
4;4;2;092007;2;4,00;0,40
4;5;2;102007;2;5,00;0,50
4;5;1;112007;23;6,00;0,60
4;5;1;122007;3;7,00;0,70
1;5;1;122007;3;8,00;0,80
1;3;1;122007;3;100,00;10,00
1;3;1;122007;3;78,00;7,80
1;3;1;122007;3;5,00;0,50
1;3;1;122007;4;5,00;0,50
1;3;2;122007;4;5,00;0,50
1;3;2;122007;4;5,00;0,50
1;1;2;012007;1;10,00;1,00
2;2;2;022007;2;1,00;0,10
3;3;2;032007;3;3,00;0,30
4;4;2;042007;4;4,00;0,40
5;5;1;052007;5;5,00;0,50
6;6;2;062007;6;6,00;0,60
7;7;1;072007;7;7,00;0,70
8;8;2;082007;8;8,00;0,80
9;9;1;092007;10;100,00;10,00
10;10;2;102007;1;78,00;7,80
1;2;1;112007;1;8,00;0,80
1;2;2;122007;1;9,00;0,90
1;2;1;012007;1;10,00;1,00
1;2;1;012007;2;1,00;0,10
1;2;1;012007;3;3,00;0,30
1;2;1;012007;4;4,00;0,40
1;2;1;012007;5;5,00;0,50
1;3;1;022007;6;6,00;0,60
1;4;1;022007;7;7,00;0,70
1;5;1;022007;8;8,00;0,80
1;6;1;022007;10;100,00;10,00
1;7;1;022007;1;78,00;7,80
1;7;1;022007;1;8,00;0,80
1;7;1;022007;1;9,00;0,90
1;7;2;022007;1;10,00;1,00
1;7;2;022007;2;1,00;0,10
2;8;2;022007;3;3,00;0,30
2;8;2;022007;4;4,00;0,40
2;8;2;022007;5;5,00;0,50
2;9;2;022007;6;6,00;0,60
2;9;2;022007;7;7,00;0,70
2;9;2;022007;8;8,00;0,80
8;10;2;022007;10;100,00;10,00
8;9;2;022007;1;78,00;7,80
8;9;1;022007;1;8,00;0,80
8;9;1;032007;1;9,00;0,90
5;9;1;032007;2;10,00;1,00
5;6;1;032007;2;1,00;0,10
9;6;1;042007;2;3,00;0,30
9;6;2;052007;2;4,00;0,40
4;6;2;062007;2;5,00;0,50
4;6;2;072007;3;6,00;0,60
4;6;2;082007;3;7,00;0,70
4;7;2;092007;3;8,00;0,80
4;7;1;102007;3;100,00;10,00
6;7;1;112007;3;78,00;7,80
6;7;1;122007;4;8,00;0,80
6;8;2;022007;4;9,00;0,90
7;8;2;022007;4;3,00;0,30
10;8;1;032007;1;4,00;0,40
1;8;2;032007;1;5,00;0,50
1;8;1;032007;1;6,00;0,60
1;9;2;042007;1;7,00;0,70
1;9;1;052007;1;8,00;0,80
1;4;2;062007;1;100,00;10,00
1;4;1;072007;2;78,00;7,80
4;4;2;082007;2;3,00;0,30
4;4;1;092007;2;4,00;0,40
4;5;2;102007;2;5,00;0,50
4;5;1;112007;23;6,00;0,60
4;5;2;122007;3;7,00;0,70
1;5;1;122007;3;8,00;0,80
1;3;2;122007;3;100,00;10,00
1;3;1;122007;3;78,00;7,80
1;3;2;122007;3;5,00;0,50
1;3;1;122007;4;5,00;0,50
1;3;2;122007;4;5,00;0,50
1;3;1;122007;4;5,00;0,50
1;1;2;012007;1;10,00;1,00
2;2;2;022007;2;1,00;0,10
3;3;2;032007;3;3,00;0,30
4;4;2;042007;4;4,00;0,40
5;5;2;052007;5;5,00;0,50
6;6;2;062007;6;6,00;0,60
7;7;2;072007;7;7,00;0,70
8;8;2;082007;8;8,00;0,80
9;9;2;092007;10;100,00;10,00
10;10;1;102007;1;78,00;7,80
1;2;2;112007;1;8,00;0,80
1;2;1;122007;1;9,00;0,90
1;2;2;012007;1;10,00;1,00
1;2;1;012007;2;1,00;0,10
1;2;1;012007;3;3,00;0,30
1;2;1;012007;4;4,00;0,40
1;2;2;012007;5;5,00;0,50
1;3;1;022007;6;6,00;0,60
1;4;2;022007;7;7,00;0,70
1;5;2;022007;8;8,00;0,80
1;6;1;022007;10;100,00;10,00
1;7;1;022007;1;78,00;7,80
1;7;2;022007;1;8,00;0,80
1;7;1;022007;1;9,00;0,90
1;7;1;022007;1;10,00;1,00
1;7;2;022007;2;1,00;0,10
2;8;1;022007;3;3,00;0,30
2;8;2;022007;4;4,00;0,40
2;8;1;022007;5;5,00;0,50
2;9;1;022007;6;6,00;0,60
2;9;1;022007;7;7,00;0,70
2;9;1;022007;8;8,00;0,80
8;10;1;022007;10;100,00;10,00
8;9;2;022007;1;78,00;7,80
8;9;1;022007;1;8,00;0,80
8;9;1;032007;1;9,00;0,90
5;9;1;032007;2;10,00;1,00
5;6;1;032007;2;1,00;0,10
9;6;2;042007;2;3,00;0,30
9;6;2;052007;2;4,00;0,40
4;6;2;062007;2;5,00;0,50
4;6;2;072007;3;6,00;0,60
4;6;1;082007;3;7,00;0,70
4;7;2;092007;3;8,00;0,80
4;7;1;102007;3;100,00;10,00
6;7;2;112007;3;78,00;7,80
6;7;1;122007;4;8,00;0,80
6;8;1;022007;4;9,00;0,90
7;8;1;022007;4;3,00;0,30
10;8;1;032007;1;4,00;0,40
1;8;1;032007;1;5,00;0,50
1;8;1;032007;1;6,00;0,60
1;9;1;042007;1;7,00;0,70
1;9;1;052007;1;8,00;0,80
1;4;2;062007;1;100,00;10,00
1;4;1;072007;2;78,00;7,80
4;4;2;082007;2;3,00;0,30
4;4;2;092007;2;4,00;0,40
4;5;1;102007;2;5,00;0,50
4;5;2;112007;23;6,00;0,60
4;5;1;122007;3;7,00;0,70
1;5;2;122007;3;8,00;0,80
1;3;2;122007;3;100,00;10,00
1;3;2;122007;3;78,00;7,80
1;3;2;122007;3;5,00;0,50
1;3;2;122007;4;5,00;0,50
1;3;2;122007;4;5,00;0,50
1;3;1;122007;4;5,00;0,50
1;1;2;012007;1;10,00;1,00
2;2;2;022007;2;1,00;0,10
3;3;1;032007;3;3,00;0,30
4;4;1;042007;4;4,00;0,40
5;5;1;052007;5;5,00;0,50
6;6;1;062007;6;6,00;0,60
7;7;1;072007;7;7,00;0,70
8;8;1;082007;8;8,00;0,80
9;9;1;092007;10;100,00;10,00
10;10;2;102007;1;78,00;7,80
1;2;1;112007;1;8,00;0,80
1;2;2;122007;1;9,00;0,90
1;2;2;012007;1;10,00;1,00
1;2;2;012007;2;1,00;0,10
1;2;2;012007;3;3,00;0,30
1;2;2;012007;4;4,00;0,40
1;2;2;012007;5;5,00;0,50
1;3;2;022007;6;6,00;0,60
1;4;1;022007;7;7,00;0,70
1;5;2;022007;8;8,00;0,80
1;6;1;022007;10;100,00;10,00
1;7;2;022007;1;78,00;7,80
1;7;1;022007;1;8,00;0,80
1;7;2;022007;1;9,00;0,90
1;7;1;022007;1;10,00;1,00
1;7;2;022007;2;1,00;0,10
2;8;1;022007;3;3,00;0,30
2;8;1;022007;4;4,00;0,40
2;8;1;022007;5;5,00;0,50
2;9;1;022007;6;6,00;0,60
2;9;1;022007;7;7,00;0,70
2;9;2;022007;8;8,00;0,80
8;10;1;022007;10;100,00;10,00
8;9;2;022007;1;78,00;7,80
8;9;1;022007;1;8,00;0,80
8;9;1;032007;1;9,00;0,90
5;9;1;032007;2;10,00;1,00
5;6;1;032007;2;1,00;0,10
9;6;2;042007;2;3,00;0,30
9;6;1;052007;2;4,00;0,40
4;6;2;062007;2;5,00;0,50
4;6;1;072007;3;6,00;0,60
4;6;2;082007;3;7,00;0,70
4;7;1;092007;3;8,00;0,80
4;7;2;102007;3;100,00;10,00
6;7;1;112007;3;78,00;7,80
6;7;2;122007;4;8,00;0,80
6;8;2;022007;4;9,00;0,90
7;8;2;022007;4;3,00;0,30
10;8;2;032007;1;4,00;0,40
1;8;2;032007;1;5,00;0,50
1;8;1;032007;1;6,00;0,60
1;9;2;042007;1;7,00;0,70
1;9;1;052007;1;8,00;0,80
1;4;1;062007;1;100,00;10,00
1;4;1;072007;2;78,00;7,80
4;4;1;082007;2;3,00;0,30
4;4;1;092007;2;4,00;0,40
4;5;1;102007;2;5,00;0,50
4;5;1;112007;23;6,00;0,60
4;5;1;122007;3;7,00;0,70
1;5;1;122007;3;8,00;0,80
1;3;1;122007;3;100,00;10,00
1;3;1;122007;3;78,00;7,80
1;3;1;122007;3;5,00;0,50
1;3;1;122007;4;5,00;0,50
1;3;1;122007;4;5,00;0,50
1;3;2;122007;4;5,00;0,50
1;1;1;012007;1;10,00;1,00
2;2;2;022007;2;1,00;0,10
3;3;2;032007;3;3,00;0,30
4;4;1;042007;4;4,00;0,40
5;5;2;052007;5;5,00;0,50
6;6;1;062007;6;6,00;0,60
7;7;2;072007;7;7,00;0,70
8;8;1;082007;8;8,00;0,80
9;9;2;092007;10;100,00;10,00
10;10;1;102007;1;78,00;7,80
1;2;2;112007;1;8,00;0,80
1;2;1;122007;1;9,00;0,90
1;2;1;012007;1;10,00;1,00
1;2;1;012007;2;1,00;0,10
1;2;1;012007;3;3,00;0,30
1;2;1;012007;4;4,00;0,40
1;2;1;012007;5;5,00;0,50
1;3;1;022007;6;6,00;0,60
1;4;1;022007;7;7,00;0,70
1;5;1;022007;8;8,00;0,80
1;6;1;022007;10;100,00;10,00
1;7;1;022007;1;78,00;7,80
1;7;1;022007;1;8,00;0,80
1;7;1;022007;1;9,00;0,90
1;7;2;022007;1;10,00;1,00
1;7;2;022007;2;1,00;0,10
2;8;2;022007;3;3,00;0,30
2;8;2;022007;4;4,00;0,40
2;8;2;022007;5;5,00;0,50
2;9;2;022007;6;6,00;0,60
2;9;2;022007;7;7,00;0,70
2;9;2;022007;8;8,00;0,80
8;10;2;022007;10;100,00;10,00
8;9;2;022007;1;78,00;7,80
8;9;2;022007;1;8,00;0,80
8;9;1;032007;1;9,00;0,90
5;9;2;032007;2;10,00;1,00
5;6;1;032007;2;1,00;0,10
9;6;2;042007;2;3,00;0,30
9;6;1;052007;2;4,00;0,40
4;6;2;062007;2;5,00;0,50
4;6;1;072007;3;6,00;0,60
4;6;2;082007;3;7,00;0,70
4;7;1;092007;3;8,00;0,80
4;7;1;102007;3;100,00;10,00
6;7;1;112007;3;78,00;7,80
6;7;1;122007;4;8,00;0,80
6;8;1;022007;4;9,00;0,90
7;8;1;022007;4;3,00;0,30
10;8;1;032007;1;4,00;0,40
1;8;1;032007;1;5,00;0,50
1;8;1;032007;1;6,00;0,60
1;9;1;042007;1;7,00;0,70
1;9;1;052007;1;8,00;0,80
1;4;1;062007;1;100,00;10,00
1;4;1;072007;2;78,00;7,80
4;4;1;082007;2;3,00;0,30
4;4;1;092007;2;4,00;0,40
4;5;1;102007;2;5,00;0,50
4;5;1;112007;23;6,00;0,60
4;5;1;122007;3;7,00;0,70
1;5;1;122007;3;8,00;0,80
1;3;1;122007;3;100,00;10,00
1;3;1;122007;3;78,00;7,80
1;3;1;122007;3;5,00;0,50
1;3;1;122007;4;5,00;0,50
1;3;1;122007;4;5,00;0,50
1;3;2;122007;4;5,00;0,50
1;1;1;012007;1;10,00;1,00
2;2;2;022007;2;1,00;0,10
3;3;1;032007;3;3,00;0,30
4;4;2;042007;4;4,00;0,40
5;5;1;052007;5;5,00;0,50
6;6;2;062007;6;6,00;0,60
7;7;1;072007;7;7,00;0,70
8;8;2;082007;8;8,00;0,80
9;9;1;092007;10;100,00;10,00
10;10;2;102007;1;78,00;7,80
1;2;1;112007;1;8,00;0,80
1;2;2;122007;1;9,00;0,90
1;2;1;012007;1;10,00;1,00
1;2;1;012007;2;1,00;0,10
1;2;1;012007;3;3,00;0,30
1;2;1;012007;4;4,00;0,40
1;2;1;012007;5;5,00;0,50
1;3;1;022007;6;6,00;0,60
1;4;1;022007;7;7,00;0,70
1;5;1;022007;8;8,00;0,80
1;6;1;022007;10;100,00;10,00
1;7;1;022007;1;78,00;7,80
1;7;1;022007;1;8,00;0,80
1;7;1;022007;1;9,00;0,90
1;7;2;022007;1;10,00;1,00
1;7;2;022007;2;1,00;0,10
2;8;2;022007;3;3,00;0,30
2;8;2;022007;4;4,00;0,40
2;8;2;022007;5;5,00;0,50
2;9;2;022007;6;6,00;0,60
2;9;2;022007;7;7,00;0,70
2;9;2;022007;8;8,00;0,80
8;10;2;022007;10;100,00;10,00
8;9;2;022007;1;78,00;7,80
8;9;1;022007;1;8,00;0,80
8;9;1;032007;1;9,00;0,90
5;9;1;032007;2;10,00;1,00
5;6;1;032007;2;1,00;0,10
9;6;2;042007;2;3,00;0,30
9;6;1;052007;2;4,00;0,40
4;6;2;062007;2;5,00;0,50
4;6;1;072007;3;6,00;0,60
4;6;2;082007;3;7,00;0,70
4;7;1;092007;3;8,00;0,80
4;7;2;102007;3;100,00;10,00
6;7;1;112007;3;78,00;7,80
6;7;2;122007;4;8,00;0,80
6;8;1;022007;4;9,00;0,90
7;8;2;022007;4;3,00;0,30
10;8;1;032007;1;4,00;0,40
1;8;1;032007;1;5,00;0,50
1;8;1;032007;1;6,00;0,60
1;9;1;042007;1;7,00;0,70
1;9;1;052007;1;8,00;0,80
1;4;1;062007;1;100,00;10,00
1;4;1;072007;2;78,00;7,80
4;4;1;082007;2;3,00;0,30
4;4;1;092007;2;4,00;0,40
4;5;1;102007;2;5,00;0,50
4;5;1;112007;23;6,00;0,60
4;5;1;122007;3;7,00;0,70
1;5;1;122007;3;8,00;0,80
1;3;1;122007;3;100,00;10,00
1;3;1;122007;3;78,00;7,80
1;3;1;122007;3;5,00;0,50
1;3;1;122007;4;5,00;0,50
1;3;1;122007;4;5,00;0,50
1;3;2;122007;4;5,00;0,50
1;1;1;012007;1;10,00;1,00
2;2;2;022007;2;1,00;0,10
3;3;1;032007;3;3,00;0,30
4;4;2;042007;4;4,00;0,40
5;5;1;052007;5;5,00;0,50
6;6;2;062007;6;6,00;0,60
7;7;1;072007;7;7,00;0,70
8;8;2;082007;8;8,00;0,80
9;9;1;092007;10;100,00;10,00
10;10;2;102007;1;78,00;7,80
1;2;1;112007;1;8,00;0,80
1;2;1;122007;1;9,00;0,90
1;2;1;012007;1;10,00;1,00
1;2;1;012007;2;1,00;0,10
1;2;1;012007;3;3,00;0,30
1;2;1;012007;4;4,00;0,40
1;2;1;012007;5;5,00;0,50
1;3;1;022007;6;6,00;0,60
1;4;1;022007;7;7,00;0,70
1;5;1;022007;8;8,00;0,80
1;6;1;022007;10;100,00;10,00
1;7;1;022007;1;78,00;7,80
1;7;1;022007;1;8,00;0,80
1;7;1;022007;1;9,00;0,90
1;7;2;022007;1;10,00;1,00
1;7;2;022007;2;1,00;0,10
2;8;2;022007;3;3,00;0,30
2;8;2;022007;4;4,00;0,40
2;8;2;022007;5;5,00;0,50
2;9;2;022007;6;6,00;0,60
2;9;2;022007;7;7,00;0,70
2;9;2;022007;8;8,00;0,80
8;10;2;022007;10;100,00;10,00
8;9;2;022007;1;78,00;7,80
8;9;2;022007;1;8,00;0,80
8;9;1;032007;1;9,00;0,90
5;9;2;032007;2;10,00;1,00
5;6;1;032007;2;1,00;0,10
9;6;2;042007;2;3,00;0,30
9;6;1;052007;2;4,00;0,40
4;6;2;062007;2;5,00;0,50
4;6;1;072007;3;6,00;0,60
4;6;2;082007;3;7,00;0,70
4;7;1;092007;3;8,00;0,80
4;7;2;102007;3;100,00;10,00
6;7;1;112007;3;78,00;7,80
6;7;2;122007;4;8,00;0,80
6;8;1;022007;4;9,00;0,90
7;8;1;022007;4;3,00;0,30
10;8;1;032007;1;4,00;0,40
1;8;1;032007;1;5,00;0,50
1;8;1;032007;1;6,00;0,60
1;9;1;042007;1;7,00;0,70
1;9;1;052007;1;8,00;0,80
1;4;2;062007;1;100,00;10,00
1;4;2;072007;2;78,00;7,80
4;4;2;082007;2;3,00;0,30
4;4;2;092007;2;4,00;0,40
4;5;2;102007;2;5,00;0,50
4;5;2;112007;23;6,00;0,60
4;5;2;122007;3;7,00;0,70
1;5;2;122007;3;8,00;0,80
1;3;2;122007;3;100,00;10,00
1;3;1;122007;3;78,00;7,80
1;3;1;122007;3;5,00;0,50
1;3;1;122007;4;5,00;0,50
1;3;1;122007;4;5,00;0,50
1;3;1;122007;4;5,00;0,50
1;1;1;012007;1;10,00;1,00
2;2;1;022007;2;1,00;0,10
3;3;1;032007;3;3,00;0,30
4;4;1;042007;4;4,00;0,40
5;5;2;052007;5;5,00;0,50
6;6;1;062007;6;6,00;0,60
7;7;2;072007;7;7,00;0,70
8;8;1;082007;8;8,00;0,80
9;9;2;092007;10;100,00;10,00
10;10;1;102007;1;78,00;7,80
1;2;2;112007;1;8,00;0,80
1;2;1;122007;1;9,00;0,90
1;2;2;012007;1;10,00;1,00
1;2;1;012007;2;1,00;0,10
1;2;2;012007;3;3,00;0,30
1;2;1;012007;4;4,00;0,40
1;2;2;012007;5;5,00;0,50
1;3;1;022007;6;6,00;0,60
1;4;2;022007;7;7,00;0,70
1;5;1;022007;8;8,00;0,80
1;6;1;022007;10;100,00;10,00
1;7;1;022007;1;78,00;7,80
1;7;1;022007;1;8,00;0,80
1;7;1;022007;1;9,00;0,90
1;7;2;022007;1;10,00;1,00
1;7;2;022007;2;1,00;0,10
2;8;2;022007;3;3,00;0,30
2;8;2;022007;4;4,00;0,40
2;8;2;022007;5;5,00;0,50
2;9;2;022007;6;6,00;0,60
2;9;2;022007;7;7,00;0,70
2;9;2;022007;8;8,00;0,80
8;10;2;022007;10;100,00;10,00
8;9;2;022007;1;78,00;7,80
8;9;2;022007;1;8,00;0,80
8;9;1;032007;1;9,00;0,90
5;9;2;032007;2;10,00;1,00
5;6;1;032007;2;1,00;0,10
9;6;2;042007;2;3,00;0,30
9;6;1;052007;2;4,00;0,40
4;6;2;062007;2;5,00;0,50
4;6;1;072007;3;6,00;0,60
4;6;2;082007;3;7,00;0,70
4;7;1;092007;3;8,00;0,80
4;7;2;102007;3;100,00;10,00
6;7;1;112007;3;78,00;7,80
6;7;2;122007;4;8,00;0,80
6;8;1;022007;4;9,00;0,90
7;8;1;022007;4;3,00;0,30
10;8;1;032007;1;4,00;0,40
1;8;1;032007;1;5,00;0,50
1;8;1;032007;1;6,00;0,60
1;9;1;042007;1;7,00;0,70
1;9;1;052007;1;8,00;0,80
1;4;1;062007;1;100,00;10,00
1;4;1;072007;2;78,00;7,80
4;4;1;082007;2;3,00;0,30
4;4;1;092007;2;4,00;0,40
4;5;1;102007;2;5,00;0,50
4;5;1;112007;23;6,00;0,60
4;5;1;122007;3;7,00;0,70
1;5;1;122007;3;8,00;0,80
1;3;1;122007;3;100,00;10,00
1;3;1;122007;3;78,00;7,80
1;3;1;122007;3;5,00;0,50
1;3;1;122007;4;5,00;0,50
1;3;1;122007;4;5,00;0,50
1;3;1;122007;4;5,00;0,50
1;1;2;012007;1;10,00;1,00
2;2;1;022007;2;1,00;0,10
3;3;2;032007;3;3,00;0,30
4;4;1;042007;4;4,00;0,40
5;5;2;052007;5;5,00;0,50
6;6;1;062007;6;6,00;0,60
7;7;2;072007;7;7,00;0,70
8;8;1;082007;8;8,00;0,80
9;9;1;092007;10;100,00;10,00
10;10;2;102007;1;78,00;7,80
1;2;1;112007;1;8,00;0,80
1;2;2;122007;1;9,00;0,90
1;2;1;012007;1;10,00;1,00
1;2;2;012007;2;1,00;0,10
1;2;1;012007;3;3,00;0,30
1;2;2;012007;4;4,00;0,40
1;2;1;012007;5;5,00;0,50
1;3;2;022007;6;6,00;0,60
1;4;2;022007;7;7,00;0,70
1;5;2;022007;8;8,00;0,80
1;6;1;022007;10;100,00;10,00
1;7;1;022007;1;78,00;7,80
1;7;1;022007;1;8,00;0,80
1;7;2;022007;1;9,00;0,90
1;7;1;022007;1;10,00;1,00
1;7;2;022007;2;1,00;0,10
2;8;1;022007;3;3,00;0,30
2;8;2;022007;4;4,00;0,40
2;8;1;022007;5;5,00;0,50
2;9;2;022007;6;6,00;0,60
2;9;1;022007;7;7,00;0,70
2;9;2;022007;8;8,00;0,80
8;10;1;022007;10;100,00;10,00
8;9;2;022007;1;78,00;7,80
8;9;1;022007;1;8,00;0,80
8;9;2;032007;1;9,00;0,90
5;9;1;032007;2;10,00;1,00
5;6;2;032007;2;1,00;0,10
9;6;1;042007;2;3,00;0,30
9;6;2;052007;2;4,00;0,40
4;6;1;062007;2;5,00;0,50
4;6;2;072007;3;6,00;0,60
4;6;1;082007;3;7,00;0,70
4;7;2;092007;3;8,00;0,80
4;7;1;102007;3;100,00;10,00
6;7;2;112007;3;78,00;7,80
6;7;2;122007;4;8,00;0,80
6;8;2;022007;4;9,00;0,90
7;8;2;022007;4;3,00;0,30
10;8;2;032007;1;4,00;0,40
1;8;2;032007;1;5,00;0,50
1;8;1;032007;1;6,00;0,60
1;9;2;042007;1;7,00;0,70
1;9;1;052007;1;8,00;0,80
1;4;2;062007;1;100,00;10,00
1;4;1;072007;2;78,00;7,80
4;4;2;082007;2;3,00;0,30
4;4;1;092007;2;4,00;0,40
4;5;2;102007;2;5,00;0,50
4;5;1;112007;23;6,00;0,60
4;5;2;122007;3;7,00;0,70
1;5;1;122007;3;8,00;0,80
1;3;2;122007;3;100,00;10,00
1;3;1;122007;3;78,00;7,80
1;3;1;122007;3;5,00;0,50
1;3;1;122007;4;5,00;0,50
1;3;1;122007;4;5,00;0,50
1;3;1;122007;4;5,00;0,50
1;1;1;012007;1;10,00;1,00
2;2;2;022007;2;1,00;0,10
3;3;2;032007;3;3,00;0,30
4;4;2;042007;4;4,00;0,40
5;5;2;052007;5;5,00;0,50
6;6;2;062007;6;6,00;0,60
7;7;2;072007;7;7,00;0,70
8;8;2;082007;8;8,00;0,80
9;9;2;092007;10;100,00;10,00
10;10;2;102007;1;78,00;7,80
1;2;1;112007;1;8,00;0,80
1;2;2;122007;1;9,00;0,90
1;2;1;012007;1;10,00;1,00
1;2;2;012007;2;1,00;0,10
1;2;1;012007;3;3,00;0,30
1;2;2;012007;4;4,00;0,40
1;2;1;012007;5;5,00;0,50
1;3;2;022007;6;6,00;0,60
1;4;1;022007;7;7,00;0,70
1;5;2;022007;8;8,00;0,80
1;6;1;022007;10;100,00;10,00
1;7;2;022007;1;78,00;7,80
1;7;1;022007;1;8,00;0,80
1;7;2;022007;1;9,00;0,90
1;7;1;022007;1;10,00;1,00
1;7;2;022007;2;1,00;0,10
2;8;2;022007;3;3,00;0,30
2;8;2;022007;4;4,00;0,40
2;8;2;022007;5;5,00;0,50
2;9;2;022007;6;6,00;0,60
2;9;2;022007;7;7,00;0,70
2;9;2;022007;8;8,00;0,80
8;10;2;022007;10;100,00;10,00
8;9;2;022007;1;78,00;7,80
8;9;2;022007;1;8,00;0,80
8;9;2;032007;1;9,00;0,90
5;9;2;032007;2;10,00;1,00
5;6;2;032007;2;1,00;0,10
9;6;2;042007;2;3,00;0,30
9;6;2;052007;2;4,00;0,40
4;6;2;062007;2;5,00;0,50
4;6;2;072007;3;6,00;0,60
4;6;2;082007;3;7,00;0,70
4;7;2;092007;3;8,00;0,80
4;7;2;102007;3;100,00;10,00
6;7;1;112007;3;78,00;7,80
6;7;1;122007;4;8,00;0,80
6;8;1;022007;4;9,00;0,90
7;8;1;022007;4;3,00;0,30
10;8;1;032007;1;4,00;0,40
1;8;1;032007;1;5,00;0,50
1;8;1;032007;1;6,00;0,60
1;9;1;042007;1;7,00;0,70
1;9;1;052007;1;8,00;0,80
1;4;1;062007;1;100,00;10,00
1;4;1;072007;2;78,00;7,80
4;4;1;082007;2;3,00;0,30
4;4;1;092007;2;4,00;0,40
4;5;1;102007;2;5,00;0,50
4;5;1;112007;23;6,00;0,60
4;5;1;122007;3;7,00;0,70
1;5;1;122007;3;8,00;0,80
1;3;1;122007;3;100,00;10,00
1;3;1;122007;3;78,00;7,80
1;3;1;122007;3;5,00;0,50
1;3;2;122007;4;5,00;0,50
1;3;1;122007;4;5,00;0,50
1;3;2;122007;4;5,00;0,50
1;1;1;012007;1;10,00;1,00
2;2;2;022007;2;1,00;0,10
3;3;2;032007;3;3,00;0,30
4;4;2;042007;4;4,00;0,40
5;5;2;052007;5;5,00;0,50
6;6;2;062007;6;6,00;0,60
7;7;2;072007;7;7,00;0,70
8;8;2;082007;8;8,00;0,80
9;9;2;092007;10;100,00;10,00
10;10;1;102007;1;78,00;7,80
1;2;2;112007;1;8,00;0,80
1;2;2;122007;1;9,00;0,90
1;2;1;012007;1;10,00;1,00
1;2;2;012007;2;1,00;0,10
1;2;2;012007;3;3,00;0,30
1;2;2;012007;4;4,00;0,40
1;2;2;012007;5;5,00;0,50
1;3;2;022007;6;6,00;0,60
1;4;2;022007;7;7,00;0,70
1;5;2;022007;8;8,00;0,80
1;6;1;022007;10;100,00;10,00
1;7;2;022007;1;78,00;7,80
1;7;2;022007;1;8,00;0,80
1;7;2;022007;1;9,00;0,90
1;7;2;022007;1;10,00;1,00
1;7;2;022007;2;1,00;0,10
2;8;2;022007;3;3,00;0,30
2;8;2;022007;4;4,00;0,40
2;8;1;022007;5;5,00;0,50
2;9;2;022007;6;6,00;0,60
2;9;2;022007;7;7,00;0,70
2;9;2;022007;8;8,00;0,80
8;10;2;022007;10;100,00;10,00
8;9;2;022007;1;78,00;7,80
8;9;2;022007;1;8,00;0,80
8;9;1;032007;1;9,00;0,90
5;9;1;032007;2;10,00;1,00
5;6;1;032007;2;1,00;0,10
9;6;1;042007;2;3,00;0,30
9;6;2;052007;2;4,00;0,40
4;6;2;062007;2;5,00;0,50
4;6;2;072007;3;6,00;0,60
4;6;2;082007;3;7,00;0,70
4;7;2;092007;3;8,00;0,80
4;7;2;102007;3;100,00;10,00
6;7;2;112007;3;78,00;7,80
6;7;2;122007;4;8,00;0,80
6;8;2;022007;4;9,00;0,90
7;8;1;022007;4;3,00;0,30
10;8;1;032007;1;4,00;0,40
1;8;1;032007;1;5,00;0,50
1;8;1;032007;1;6,00;0,60
1;9;1;042007;1;7,00;0,70
1;9;1;052007;1;8,00;0,80
1;4;1;062007;1;100,00;10,00
1;4;1;072007;2;78,00;7,80
4;4;2;082007;2;3,00;0,30
4;4;2;092007;2;4,00;0,40
4;5;2;102007;2;5,00;0,50
4;5;2;112007;23;6,00;0,60
4;5;2;122007;3;7,00;0,70
1;5;2;122007;3;8,00;0,80
1;3;2;122007;3;100,00;10,00
1;3;2;122007;3;78,00;7,80
1;3;2;122007;3;5,00;0,50
1;3;2;122007;4;5,00;0,50
1;3;2;122007;4;5,00;0,50
1;3;1;122007;4;5,00;0,50
